{
	"id": "f9e569bf-3511-4ed6-8ca2-dc541d7edefd",
	"name": "cars-api production",
	"values": [
		{
			"key": "baseUrl",
			"value": "http://production.eba-tguyetjt.us-west-1.elasticbeanstalk.com/",
			"enabled": true
		}
	],
	"_postman_variable_scope": "environment",
	"_postman_exported_at": "2020-07-12T17:05:20.839Z",
	"_postman_exported_using": "Postman/7.27.1"
}